%YAML 1.1
%TAG !u! tag:unity3d.com,2011:
--- !u!74 &7400000
AnimationClip:
  m_ObjectHideFlags: 0
  m_CorrespondingSourceObject: {fileID: 0}
  m_PrefabInstance: {fileID: 0}
  m_PrefabAsset: {fileID: 0}
  m_Name: Silver Ball
  serializedVersion: 6
  m_Legacy: 0
  m_Compressed: 0
  m_UseHighQualityCurve: 1
  m_RotationCurves: []
  m_CompressedRotationCurves: []
  m_EulerCurves: []
  m_PositionCurves: []
  m_ScaleCurves: []
  m_FloatCurves: []
  m_PPtrCurves:
  - curve:
    - time: 0
      value: {fileID: 764378611886450339, guid: 6c86b6fd7bee14ae8aee2edb2d154058,
        type: 3}
    - time: 0.083333336
      value: {fileID: 4616064646876572449, guid: 6c86b6fd7bee14ae8aee2edb2d154058,
        type: 3}
    - time: 0.16666667
      value: {fileID: -5735724901401494257, guid: 6c86b6fd7bee14ae8aee2edb2d154058,
        type: 3}
    - time: 0.25
      value: {fileID: -6702819873507423088, guid: 6c86b6fd7bee14ae8aee2edb2d154058,
        type: 3}
    - time: 0.33333334
      value: {fileID: 3656249795016628691, guid: 6c86b6fd7bee14ae8aee2edb2d154058,
        type: 3}
    - time: 0.41666666
      value: {fileID: 348304278993709218, guid: 6c86b6fd7bee14ae8aee2edb2d154058,
        type: 3}
    - time: 0.5
      value: {fileID: -4387642650537755162, guid: 6c86b6fd7bee14ae8aee2edb2d154058,
        type: 3}
    - time: 0.5833333
      value: {fileID: 7172157144911313146, guid: 6c86b6fd7bee14ae8aee2edb2d154058,
        type: 3}
    - time: 0.6666667
      value: {fileID: 8644016873763251277, guid: 6c86b6fd7bee14ae8aee2edb2d154058,
        type: 3}
    - time: 0.75
      value: {fileID: -462665657702574236, guid: 6c86b6fd7bee14ae8aee2edb2d154058,
        type: 3}
    - time: 0.8333333
      value: {fileID: -3803531104218210653, guid: 6c86b6fd7bee14ae8aee2edb2d154058,
        type: 3}
    - time: 0.9166667
      value: {fileID: 8244245737537761746, guid: 6c86b6fd7bee14ae8aee2edb2d154058,
        type: 3}
    - time: 1
      value: {fileID: 6896906648934289461, guid: 6c86b6fd7bee14ae8aee2edb2d154058,
        type: 3}
    attribute: m_Sprite
    path: 
    classID: 212
    script: {fileID: 0}
  m_SampleRate: 12
  m_WrapMode: 0
  m_Bounds:
    m_Center: {x: 0, y: 0, z: 0}
    m_Extent: {x: 0, y: 0, z: 0}
  m_ClipBindingConstant:
    genericBindings:
    - serializedVersion: 2
      path: 0
      attribute: 0
      script: {fileID: 0}
      typeID: 212
      customType: 23
      isPPtrCurve: 1
    pptrCurveMapping:
    - {fileID: 764378611886450339, guid: 6c86b6fd7bee14ae8aee2edb2d154058, type: 3}
    - {fileID: 4616064646876572449, guid: 6c86b6fd7bee14ae8aee2edb2d154058, type: 3}
    - {fileID: -5735724901401494257, guid: 6c86b6fd7bee14ae8aee2edb2d154058, type: 3}
    - {fileID: -6702819873507423088, guid: 6c86b6fd7bee14ae8aee2edb2d154058, type: 3}
    - {fileID: 3656249795016628691, guid: 6c86b6fd7bee14ae8aee2edb2d154058, type: 3}
    - {fileID: 348304278993709218, guid: 6c86b6fd7bee14ae8aee2edb2d154058, type: 3}
    - {fileID: -4387642650537755162, guid: 6c86b6fd7bee14ae8aee2edb2d154058, type: 3}
    - {fileID: 7172157144911313146, guid: 6c86b6fd7bee14ae8aee2edb2d154058, type: 3}
    - {fileID: 8644016873763251277, guid: 6c86b6fd7bee14ae8aee2edb2d154058, type: 3}
    - {fileID: -462665657702574236, guid: 6c86b6fd7bee14ae8aee2edb2d154058, type: 3}
    - {fileID: -3803531104218210653, guid: 6c86b6fd7bee14ae8aee2edb2d154058, type: 3}
    - {fileID: 8244245737537761746, guid: 6c86b6fd7bee14ae8aee2edb2d154058, type: 3}
    - {fileID: 6896906648934289461, guid: 6c86b6fd7bee14ae8aee2edb2d154058, type: 3}
  m_AnimationClipSettings:
    serializedVersion: 2
    m_AdditiveReferencePoseClip: {fileID: 0}
    m_AdditiveReferencePoseTime: 0
    m_StartTime: 0
    m_StopTime: 1.0833334
    m_OrientationOffsetY: 0
    m_Level: 0
    m_CycleOffset: 0
    m_HasAdditiveReferencePose: 0
    m_LoopTime: 1
    m_LoopBlend: 0
    m_LoopBlendOrientation: 0
    m_LoopBlendPositionY: 0
    m_LoopBlendPositionXZ: 0
    m_KeepOriginalOrientation: 0
    m_KeepOriginalPositionY: 1
    m_KeepOriginalPositionXZ: 0
    m_HeightFromFeet: 0
    m_Mirror: 0
  m_EditorCurves: []
  m_EulerEditorCurves: []
  m_HasGenericRootTransform: 0
  m_HasMotionFloatCurves: 0
  m_Events: []
